C:/Users/Basile/STM32CubeIDE/workspace_1.14.1/BLE_HeartRate/Middlewares/ST/STM32_WPAN/ble/core/auto/ble_gatt_aci.c:21:12:aci_gatt_init	40	static
C:/Users/Basile/STM32CubeIDE/workspace_1.14.1/BLE_HeartRate/Middlewares/ST/STM32_WPAN/ble/core/auto/ble_gatt_aci.c:35:12:aci_gatt_add_service	328	static
C:/Users/Basile/STM32CubeIDE/workspace_1.14.1/BLE_HeartRate/Middlewares/ST/STM32_WPAN/ble/core/auto/ble_gatt_aci.c:85:12:aci_gatt_include_service	320	static
C:/Users/Basile/STM32CubeIDE/workspace_1.14.1/BLE_HeartRate/Middlewares/ST/STM32_WPAN/ble/core/auto/ble_gatt_aci.c:124:12:aci_gatt_add_char	336	static
C:/Users/Basile/STM32CubeIDE/workspace_1.14.1/BLE_HeartRate/Middlewares/ST/STM32_WPAN/ble/core/auto/ble_gatt_aci.c:197:12:aci_gatt_add_char_desc	336	static
C:/Users/Basile/STM32CubeIDE/workspace_1.14.1/BLE_HeartRate/Middlewares/ST/STM32_WPAN/ble/core/auto/ble_gatt_aci.c:282:12:aci_gatt_update_char_value	320	static
C:/Users/Basile/STM32CubeIDE/workspace_1.14.1/BLE_HeartRate/Middlewares/ST/STM32_WPAN/ble/core/auto/ble_gatt_aci.c:315:12:aci_gatt_del_char	312	static
C:/Users/Basile/STM32CubeIDE/workspace_1.14.1/BLE_HeartRate/Middlewares/ST/STM32_WPAN/ble/core/auto/ble_gatt_aci.c:339:12:aci_gatt_del_service	312	static
C:/Users/Basile/STM32CubeIDE/workspace_1.14.1/BLE_HeartRate/Middlewares/ST/STM32_WPAN/ble/core/auto/ble_gatt_aci.c:360:12:aci_gatt_del_include_service	312	static
C:/Users/Basile/STM32CubeIDE/workspace_1.14.1/BLE_HeartRate/Middlewares/ST/STM32_WPAN/ble/core/auto/ble_gatt_aci.c:384:12:aci_gatt_set_event_mask	312	static
C:/Users/Basile/STM32CubeIDE/workspace_1.14.1/BLE_HeartRate/Middlewares/ST/STM32_WPAN/ble/core/auto/ble_gatt_aci.c:405:12:aci_gatt_exchange_config	312	static
C:/Users/Basile/STM32CubeIDE/workspace_1.14.1/BLE_HeartRate/Middlewares/ST/STM32_WPAN/ble/core/auto/ble_gatt_aci.c:427:12:aci_att_find_info_req	320	static
C:/Users/Basile/STM32CubeIDE/workspace_1.14.1/BLE_HeartRate/Middlewares/ST/STM32_WPAN/ble/core/auto/ble_gatt_aci.c:455:12:aci_att_find_by_type_value_req	320	static
C:/Users/Basile/STM32CubeIDE/workspace_1.14.1/BLE_HeartRate/Middlewares/ST/STM32_WPAN/ble/core/auto/ble_gatt_aci.c:492:12:aci_att_read_by_type_req	320	static
C:/Users/Basile/STM32CubeIDE/workspace_1.14.1/BLE_HeartRate/Middlewares/ST/STM32_WPAN/ble/core/auto/ble_gatt_aci.c:527:12:aci_att_read_by_group_type_req	320	static
C:/Users/Basile/STM32CubeIDE/workspace_1.14.1/BLE_HeartRate/Middlewares/ST/STM32_WPAN/ble/core/auto/ble_gatt_aci.c:562:12:aci_att_prepare_write_req	320	static
C:/Users/Basile/STM32CubeIDE/workspace_1.14.1/BLE_HeartRate/Middlewares/ST/STM32_WPAN/ble/core/auto/ble_gatt_aci.c:596:12:aci_att_execute_write_req	312	static
C:/Users/Basile/STM32CubeIDE/workspace_1.14.1/BLE_HeartRate/Middlewares/ST/STM32_WPAN/ble/core/auto/ble_gatt_aci.c:621:12:aci_gatt_disc_all_primary_services	312	static
C:/Users/Basile/STM32CubeIDE/workspace_1.14.1/BLE_HeartRate/Middlewares/ST/STM32_WPAN/ble/core/auto/ble_gatt_aci.c:643:12:aci_gatt_disc_primary_service_by_uuid	312	static
C:/Users/Basile/STM32CubeIDE/workspace_1.14.1/BLE_HeartRate/Middlewares/ST/STM32_WPAN/ble/core/auto/ble_gatt_aci.c:672:12:aci_gatt_find_included_services	320	static
C:/Users/Basile/STM32CubeIDE/workspace_1.14.1/BLE_HeartRate/Middlewares/ST/STM32_WPAN/ble/core/auto/ble_gatt_aci.c:700:12:aci_gatt_disc_all_char_of_service	320	static
C:/Users/Basile/STM32CubeIDE/workspace_1.14.1/BLE_HeartRate/Middlewares/ST/STM32_WPAN/ble/core/auto/ble_gatt_aci.c:728:12:aci_gatt_disc_char_by_uuid	320	static
C:/Users/Basile/STM32CubeIDE/workspace_1.14.1/BLE_HeartRate/Middlewares/ST/STM32_WPAN/ble/core/auto/ble_gatt_aci.c:763:12:aci_gatt_disc_all_char_desc	320	static
C:/Users/Basile/STM32CubeIDE/workspace_1.14.1/BLE_HeartRate/Middlewares/ST/STM32_WPAN/ble/core/auto/ble_gatt_aci.c:791:12:aci_gatt_read_char_value	312	static
C:/Users/Basile/STM32CubeIDE/workspace_1.14.1/BLE_HeartRate/Middlewares/ST/STM32_WPAN/ble/core/auto/ble_gatt_aci.c:816:12:aci_gatt_read_using_char_uuid	320	static
C:/Users/Basile/STM32CubeIDE/workspace_1.14.1/BLE_HeartRate/Middlewares/ST/STM32_WPAN/ble/core/auto/ble_gatt_aci.c:851:12:aci_gatt_read_long_char_value	320	static
C:/Users/Basile/STM32CubeIDE/workspace_1.14.1/BLE_HeartRate/Middlewares/ST/STM32_WPAN/ble/core/auto/ble_gatt_aci.c:879:12:aci_gatt_read_multiple_char_value	312	static
C:/Users/Basile/STM32CubeIDE/workspace_1.14.1/BLE_HeartRate/Middlewares/ST/STM32_WPAN/ble/core/auto/ble_gatt_aci.c:907:12:aci_gatt_write_char_value	328	static
C:/Users/Basile/STM32CubeIDE/workspace_1.14.1/BLE_HeartRate/Middlewares/ST/STM32_WPAN/ble/core/auto/ble_gatt_aci.c:938:12:aci_gatt_write_long_char_value	320	static
C:/Users/Basile/STM32CubeIDE/workspace_1.14.1/BLE_HeartRate/Middlewares/ST/STM32_WPAN/ble/core/auto/ble_gatt_aci.c:972:12:aci_gatt_write_char_reliable	320	static
C:/Users/Basile/STM32CubeIDE/workspace_1.14.1/BLE_HeartRate/Middlewares/ST/STM32_WPAN/ble/core/auto/ble_gatt_aci.c:1006:12:aci_gatt_write_long_char_desc	320	static
C:/Users/Basile/STM32CubeIDE/workspace_1.14.1/BLE_HeartRate/Middlewares/ST/STM32_WPAN/ble/core/auto/ble_gatt_aci.c:1040:12:aci_gatt_read_long_char_desc	320	static
C:/Users/Basile/STM32CubeIDE/workspace_1.14.1/BLE_HeartRate/Middlewares/ST/STM32_WPAN/ble/core/auto/ble_gatt_aci.c:1068:12:aci_gatt_write_char_desc	328	static
C:/Users/Basile/STM32CubeIDE/workspace_1.14.1/BLE_HeartRate/Middlewares/ST/STM32_WPAN/ble/core/auto/ble_gatt_aci.c:1099:12:aci_gatt_read_char_desc	312	static
C:/Users/Basile/STM32CubeIDE/workspace_1.14.1/BLE_HeartRate/Middlewares/ST/STM32_WPAN/ble/core/auto/ble_gatt_aci.c:1124:12:aci_gatt_write_without_resp	328	static
C:/Users/Basile/STM32CubeIDE/workspace_1.14.1/BLE_HeartRate/Middlewares/ST/STM32_WPAN/ble/core/auto/ble_gatt_aci.c:1154:12:aci_gatt_signed_write_without_resp	328	static
C:/Users/Basile/STM32CubeIDE/workspace_1.14.1/BLE_HeartRate/Middlewares/ST/STM32_WPAN/ble/core/auto/ble_gatt_aci.c:1184:12:aci_gatt_confirm_indication	312	static
C:/Users/Basile/STM32CubeIDE/workspace_1.14.1/BLE_HeartRate/Middlewares/ST/STM32_WPAN/ble/core/auto/ble_gatt_aci.c:1205:12:aci_gatt_write_resp	320	static
C:/Users/Basile/STM32CubeIDE/workspace_1.14.1/BLE_HeartRate/Middlewares/ST/STM32_WPAN/ble/core/auto/ble_gatt_aci.c:1241:12:aci_gatt_allow_read	312	static
C:/Users/Basile/STM32CubeIDE/workspace_1.14.1/BLE_HeartRate/Middlewares/ST/STM32_WPAN/ble/core/auto/ble_gatt_aci.c:1262:12:aci_gatt_set_security_permission	320	static
C:/Users/Basile/STM32CubeIDE/workspace_1.14.1/BLE_HeartRate/Middlewares/ST/STM32_WPAN/ble/core/auto/ble_gatt_aci.c:1289:12:aci_gatt_set_desc_value	320	static
C:/Users/Basile/STM32CubeIDE/workspace_1.14.1/BLE_HeartRate/Middlewares/ST/STM32_WPAN/ble/core/auto/ble_gatt_aci.c:1325:12:aci_gatt_read_handle_value	576	static
C:/Users/Basile/STM32CubeIDE/workspace_1.14.1/BLE_HeartRate/Middlewares/ST/STM32_WPAN/ble/core/auto/ble_gatt_aci.c:1361:12:aci_gatt_update_char_value_ext	320	static
C:/Users/Basile/STM32CubeIDE/workspace_1.14.1/BLE_HeartRate/Middlewares/ST/STM32_WPAN/ble/core/auto/ble_gatt_aci.c:1403:12:aci_gatt_deny_read	312	static
C:/Users/Basile/STM32CubeIDE/workspace_1.14.1/BLE_HeartRate/Middlewares/ST/STM32_WPAN/ble/core/auto/ble_gatt_aci.c:1427:12:aci_gatt_set_access_permission	320	static
C:/Users/Basile/STM32CubeIDE/workspace_1.14.1/BLE_HeartRate/Middlewares/ST/STM32_WPAN/ble/core/auto/ble_gatt_aci.c:1454:12:aci_gatt_store_db	40	static
C:/Users/Basile/STM32CubeIDE/workspace_1.14.1/BLE_HeartRate/Middlewares/ST/STM32_WPAN/ble/core/auto/ble_gatt_aci.c:1468:12:aci_gatt_send_mult_notification	312	static
C:/Users/Basile/STM32CubeIDE/workspace_1.14.1/BLE_HeartRate/Middlewares/ST/STM32_WPAN/ble/core/auto/ble_gatt_aci.c:1495:12:aci_gatt_read_multiple_var_char_value	312	static
