; ModuleID = 'obj\Release\130\android\environment.arm64-v8a.ll'
source_filename = "obj\Release\130\android\environment.arm64-v8a.ll"
target datalayout = "e-m:e-i8:8:32-i16:16:32-i64:64-i128:128-n32:64-S128"
target triple = "aarch64-unknown-linux-android"


%struct.ApplicationConfig = type {
	i8,; bool uses_mono_llvm
	i8,; bool uses_mono_aot
	i8,; bool aot_lazy_load
	i8,; bool uses_assembly_preload
	i8,; bool is_a_bundled_app
	i8,; bool broken_exception_transitions
	i8,; bool instant_run_enabled
	i8,; bool jni_add_native_method_registration_attribute_present
	i8,; bool have_runtime_config_blob
	i8,; bool have_assemblies_blob
	i8,; bool marshal_methods_enabled
	i8,; uint8_t bound_stream_io_exception_type
	i32,; uint32_t package_naming_policy
	i32,; uint32_t environment_variable_count
	i32,; uint32_t system_property_count
	i32,; uint32_t number_of_assemblies_in_apk
	i32,; uint32_t bundled_assembly_name_width
	i32,; uint32_t number_of_assembly_store_files
	i32,; uint32_t number_of_dso_cache_entries
	i32,; uint32_t android_runtime_jnienv_class_token
	i32,; uint32_t jnienv_initialize_method_token
	i32,; uint32_t jnienv_registerjninatives_method_token
	i32,; uint32_t jni_remapping_replacement_type_count
	i32,; uint32_t jni_remapping_replacement_method_index_entry_count
	i32,; uint32_t mono_components_mask
	i8*; char* android_package_name
}

%struct.AssemblyStoreAssemblyDescriptor = type {
	i32,; uint32_t data_offset
	i32,; uint32_t data_size
	i32,; uint32_t debug_data_offset
	i32,; uint32_t debug_data_size
	i32,; uint32_t config_data_offset
	i32; uint32_t config_data_size
}

%struct.AssemblyStoreSingleAssemblyRuntimeData = type {
	i8*,; uint8_t* image_data
	i8*,; uint8_t* debug_info_data
	i8*,; uint8_t* config_data
	%struct.AssemblyStoreAssemblyDescriptor*; AssemblyStoreAssemblyDescriptor* descriptor
}

%struct.AssemblyStoreRuntimeData = type {
	i8*,; uint8_t* data_start
	i32,; uint32_t assembly_count
	%struct.AssemblyStoreAssemblyDescriptor*; AssemblyStoreAssemblyDescriptor* assemblies
}

%struct.XamarinAndroidBundledAssembly = type {
	i32,; int32_t apk_fd
	i32,; uint32_t data_offset
	i32,; uint32_t data_size
	i8*,; uint8_t* data
	i32,; uint32_t name_length
	i8*; char* name
}

%struct.DSOCacheEntry = type {
	i64,; uint64_t hash
	i8,; bool ignore
	i8*,; char* name
	i8*; void* handle
}

@format_tag = local_unnamed_addr constant i64 385281960275288, align 8
@__mono_aot_mode_name = internal constant [5 x i8] c"none\00", align 1
@mono_aot_mode_name = local_unnamed_addr constant i8* getelementptr inbounds ([5 x i8], [5 x i8]* @__mono_aot_mode_name, i64 0, i64 0), align 8

; app_environment_variables
@__app_environment_variables_n_0.0 = internal constant [11 x i8] c"MONO_DEBUG\00", align 1
@__app_environment_variables_v_0.1 = internal constant [23 x i8] c"gen-compact-seq-points\00", align 1
@__app_environment_variables_n_1.2 = internal constant [15 x i8] c"MONO_GC_PARAMS\00", align 1
@__app_environment_variables_v_1.3 = internal constant [21 x i8] c"major=marksweep-conc\00", align 1
@__app_environment_variables_n_2.4 = internal constant [17 x i8] c"XAMARIN_BUILD_ID\00", align 1
@__app_environment_variables_v_2.5 = internal constant [37 x i8] c"414178d0-b310-4b89-8118-fcc7231f12b8\00", align 1
@__app_environment_variables_n_3.6 = internal constant [28 x i8] c"XA_HTTP_CLIENT_HANDLER_TYPE\00", align 1
@__app_environment_variables_v_3.7 = internal constant [41 x i8] c"Xamarin.Android.Net.AndroidClientHandler\00", align 1
@__app_environment_variables_n_4.8 = internal constant [16 x i8] c"XA_TLS_PROVIDER\00", align 1
@__app_environment_variables_v_4.9 = internal constant [5 x i8] c"btls\00", align 1
@__app_environment_variables_n_5.10 = internal constant [29 x i8] c"__XA_PACKAGE_NAMING_POLICY__\00", align 1
@__app_environment_variables_v_5.11 = internal constant [15 x i8] c"LowercaseCrc64\00", align 1

@app_environment_variables = local_unnamed_addr constant [12 x i8*] [
	i8* getelementptr inbounds ([11 x i8], [11 x i8]* @__app_environment_variables_n_0.0, i32 0, i32 0),
	i8* getelementptr inbounds ([23 x i8], [23 x i8]* @__app_environment_variables_v_0.1, i32 0, i32 0),
	i8* getelementptr inbounds ([15 x i8], [15 x i8]* @__app_environment_variables_n_1.2, i32 0, i32 0),
	i8* getelementptr inbounds ([21 x i8], [21 x i8]* @__app_environment_variables_v_1.3, i32 0, i32 0),
	i8* getelementptr inbounds ([17 x i8], [17 x i8]* @__app_environment_variables_n_2.4, i32 0, i32 0),
	i8* getelementptr inbounds ([37 x i8], [37 x i8]* @__app_environment_variables_v_2.5, i32 0, i32 0),
	i8* getelementptr inbounds ([28 x i8], [28 x i8]* @__app_environment_variables_n_3.6, i32 0, i32 0),
	i8* getelementptr inbounds ([41 x i8], [41 x i8]* @__app_environment_variables_v_3.7, i32 0, i32 0),
	i8* getelementptr inbounds ([16 x i8], [16 x i8]* @__app_environment_variables_n_4.8, i32 0, i32 0),
	i8* getelementptr inbounds ([5 x i8], [5 x i8]* @__app_environment_variables_v_4.9, i32 0, i32 0),
	i8* getelementptr inbounds ([29 x i8], [29 x i8]* @__app_environment_variables_n_5.10, i32 0, i32 0),
	i8* getelementptr inbounds ([15 x i8], [15 x i8]* @__app_environment_variables_v_5.11, i32 0, i32 0)
], align 8

; app_system_properties
@app_system_properties = local_unnamed_addr constant [0 x i8*] zeroinitializer, align 8
@__ApplicationConfig_android_package_name.0 = internal constant [28 x i8] c"com.companyname.crearateapp\00", align 1

; application_config
@application_config = local_unnamed_addr constant %struct.ApplicationConfig {
	i8 0, ; uses_mono_llvm
	i8 0, ; uses_mono_aot
	i8 0, ; aot_lazy_load
	i8 1, ; uses_assembly_preload
	i8 0, ; is_a_bundled_app
	i8 0, ; broken_exception_transitions
	i8 0, ; instant_run_enabled
	i8 0, ; jni_add_native_method_registration_attribute_present
	i8 0, ; have_runtime_config_blob
	i8 1, ; have_assemblies_blob
	i8 0, ; marshal_methods_enabled
	i8 1, ; bound_stream_io_exception_type
	i32 3, ; package_naming_policy
	i32 12, ; environment_variable_count
	i32 0, ; system_property_count
	i32 49, ; number_of_assemblies_in_apk
	i32 0, ; bundled_assembly_name_width
	i32 2, ; number_of_assembly_store_files
	i32 20, ; number_of_dso_cache_entries
	i32 33555393, ; android_runtime_jnienv_class_token
	i32 100674530, ; jnienv_initialize_method_token
	i32 100674529, ; jnienv_registerjninatives_method_token
	i32 0, ; jni_remapping_replacement_type_count
	i32 0, ; jni_remapping_replacement_method_index_entry_count
	i32 0, ; mono_components_mask
	i8* getelementptr inbounds ([28 x i8], [28 x i8]* @__ApplicationConfig_android_package_name.0, i32 0, i32 0); android_package_name
}, align 8

@__DSOCacheEntry_name.1 = internal constant [18 x i8] c"libmono-native.so\00", align 1
@__DSOCacheEntry_name.2 = internal constant [23 x i8] c"libmono-btls-shared.so\00", align 1
@__DSOCacheEntry_name.3 = internal constant [16 x i8] c"libmonodroid.so\00", align 1
@__DSOCacheEntry_name.4 = internal constant [22 x i8] c"libxa-internal-api.so\00", align 1
@__DSOCacheEntry_name.5 = internal constant [19 x i8] c"libmonosgen-2.0.so\00", align 1

; dso_cache
@dso_cache = local_unnamed_addr global [20 x %struct.DSOCacheEntry] [
	; 0
	%struct.DSOCacheEntry {
		i64 1735841361372535901, ; hash 0x1816f285730a5c5d, from name: mono-native
		i8 0, ; ignore
		i8* getelementptr inbounds ([18 x i8], [18 x i8]* @__DSOCacheEntry_name.1, i32 0, i32 0), ; name
		i8* null; handle
	}, 
	; 1
	%struct.DSOCacheEntry {
		i64 3245573717126666778, ; hash 0x2d0a981995adda1a, from name: mono-btls-shared
		i8 0, ; ignore
		i8* getelementptr inbounds ([23 x i8], [23 x i8]* @__DSOCacheEntry_name.2, i32 0, i32 0), ; name
		i8* null; handle
	}, 
	; 2
	%struct.DSOCacheEntry {
		i64 3624954949676586435, ; hash 0x324e6d52264455c3, from name: libmono-native.so
		i8 0, ; ignore
		i8* getelementptr inbounds ([18 x i8], [18 x i8]* @__DSOCacheEntry_name.1, i32 0, i32 0), ; name
		i8* null; handle
	}, 
	; 3
	%struct.DSOCacheEntry {
		i64 3883875758066343538, ; hash 0x35e64c6c9f4b9e72, from name: libmono-btls-shared
		i8 0, ; ignore
		i8* getelementptr inbounds ([23 x i8], [23 x i8]* @__DSOCacheEntry_name.2, i32 0, i32 0), ; name
		i8* null; handle
	}, 
	; 4
	%struct.DSOCacheEntry {
		i64 7338982286544642983, ; hash 0x65d94d818a60a3a7, from name: monodroid.so
		i8 0, ; ignore
		i8* getelementptr inbounds ([16 x i8], [16 x i8]* @__DSOCacheEntry_name.3, i32 0, i32 0), ; name
		i8* null; handle
	}, 
	; 5
	%struct.DSOCacheEntry {
		i64 7717568796801148197, ; hash 0x6b1a4fee66f8a525, from name: libxa-internal-api
		i8 0, ; ignore
		i8* getelementptr inbounds ([22 x i8], [22 x i8]* @__DSOCacheEntry_name.4, i32 0, i32 0), ; name
		i8* null; handle
	}, 
	; 6
	%struct.DSOCacheEntry {
		i64 7740286304433625072, ; hash 0x6b6b0562539657f0, from name: libmonosgen-2.0
		i8 0, ; ignore
		i8* getelementptr inbounds ([19 x i8], [19 x i8]* @__DSOCacheEntry_name.5, i32 0, i32 0), ; name
		i8* null; handle
	}, 
	; 7
	%struct.DSOCacheEntry {
		i64 8392333777418328833, ; hash 0x74778f1b27881b01, from name: libmonodroid.so
		i8 0, ; ignore
		i8* getelementptr inbounds ([16 x i8], [16 x i8]* @__DSOCacheEntry_name.3, i32 0, i32 0), ; name
		i8* null; handle
	}, 
	; 8
	%struct.DSOCacheEntry {
		i64 8673945120601860270, ; hash 0x78600b2172b4e8ae, from name: mono-btls-shared.so
		i8 0, ; ignore
		i8* getelementptr inbounds ([23 x i8], [23 x i8]* @__DSOCacheEntry_name.2, i32 0, i32 0), ; name
		i8* null; handle
	}, 
	; 9
	%struct.DSOCacheEntry {
		i64 9055317871244365271, ; hash 0x7daaf3a073c44dd7, from name: monodroid
		i8 0, ; ignore
		i8* getelementptr inbounds ([16 x i8], [16 x i8]* @__DSOCacheEntry_name.3, i32 0, i32 0), ; name
		i8* null; handle
	}, 
	; 10
	%struct.DSOCacheEntry {
		i64 9338662132064502671, ; hash 0x819997bb1318c38f, from name: xa-internal-api.so
		i8 0, ; ignore
		i8* getelementptr inbounds ([22 x i8], [22 x i8]* @__DSOCacheEntry_name.4, i32 0, i32 0), ; name
		i8* null; handle
	}, 
	; 11
	%struct.DSOCacheEntry {
		i64 10207954440838677834, ; hash 0x8da9f07ad98f854a, from name: mono-native.so
		i8 0, ; ignore
		i8* getelementptr inbounds ([18 x i8], [18 x i8]* @__DSOCacheEntry_name.1, i32 0, i32 0), ; name
		i8* null; handle
	}, 
	; 12
	%struct.DSOCacheEntry {
		i64 11521729796983092563, ; hash 0x9fe56834a335f553, from name: libmonodroid
		i8 0, ; ignore
		i8* getelementptr inbounds ([16 x i8], [16 x i8]* @__DSOCacheEntry_name.3, i32 0, i32 0), ; name
		i8* null; handle
	}, 
	; 13
	%struct.DSOCacheEntry {
		i64 12988035350267542210, ; hash 0xb43ec55666e9bac2, from name: xa-internal-api
		i8 0, ; ignore
		i8* getelementptr inbounds ([22 x i8], [22 x i8]* @__DSOCacheEntry_name.4, i32 0, i32 0), ; name
		i8* null; handle
	}, 
	; 14
	%struct.DSOCacheEntry {
		i64 13380041663667534323, ; hash 0xb9af7500aad479f3, from name: libmono-btls-shared.so
		i8 0, ; ignore
		i8* getelementptr inbounds ([23 x i8], [23 x i8]* @__DSOCacheEntry_name.2, i32 0, i32 0), ; name
		i8* null; handle
	}, 
	; 15
	%struct.DSOCacheEntry {
		i64 14424844866220670826, ; hash 0xc82f57facf333f6a, from name: monosgen-2.0.so
		i8 0, ; ignore
		i8* getelementptr inbounds ([19 x i8], [19 x i8]* @__DSOCacheEntry_name.5, i32 0, i32 0), ; name
		i8* null; handle
	}, 
	; 16
	%struct.DSOCacheEntry {
		i64 14809900564945508170, ; hash 0xcd875618fc6f174a, from name: libxa-internal-api.so
		i8 0, ; ignore
		i8* getelementptr inbounds ([22 x i8], [22 x i8]* @__DSOCacheEntry_name.4, i32 0, i32 0), ; name
		i8* null; handle
	}, 
	; 17
	%struct.DSOCacheEntry {
		i64 16237324308683727476, ; hash 0xe156906e01e8a274, from name: libmono-native
		i8 0, ; ignore
		i8* getelementptr inbounds ([18 x i8], [18 x i8]* @__DSOCacheEntry_name.1, i32 0, i32 0), ; name
		i8* null; handle
	}, 
	; 18
	%struct.DSOCacheEntry {
		i64 16717189724135467099, ; hash 0xe7ff637b8de7a85b, from name: libmonosgen-2.0.so
		i8 0, ; ignore
		i8* getelementptr inbounds ([19 x i8], [19 x i8]* @__DSOCacheEntry_name.5, i32 0, i32 0), ; name
		i8* null; handle
	}, 
	; 19
	%struct.DSOCacheEntry {
		i64 16804602679676381986, ; hash 0xe935f11a41b02b22, from name: monosgen-2.0
		i8 0, ; ignore
		i8* getelementptr inbounds ([19 x i8], [19 x i8]* @__DSOCacheEntry_name.5, i32 0, i32 0), ; name
		i8* null; handle
	}
], align 8; end of 'dso_cache' array


; Bundled assembly name buffers, all 0 bytes long
@bundled_assemblies = local_unnamed_addr global [0 x %struct.XamarinAndroidBundledAssembly] zeroinitializer, align 8


; Assembly store individual assembly data
@assembly_store_bundled_assemblies = local_unnamed_addr global [49 x %struct.AssemblyStoreSingleAssemblyRuntimeData] zeroinitializer, align 8

; Assembly store data
@assembly_stores = local_unnamed_addr global [2 x %struct.AssemblyStoreRuntimeData] zeroinitializer, align 8

!llvm.module.flags = !{!0, !1, !2, !3, !4, !5}
!llvm.ident = !{!6}
!0 = !{i32 1, !"wchar_size", i32 4}
!1 = !{i32 7, !"PIC Level", i32 2}
!2 = !{i32 1, !"branch-target-enforcement", i32 0}
!3 = !{i32 1, !"sign-return-address", i32 0}
!4 = !{i32 1, !"sign-return-address-all", i32 0}
!5 = !{i32 1, !"sign-return-address-with-bkey", i32 0}
!6 = !{!"Xamarin.Android remotes/origin/d17-5 @ 45b0e144f73b2c8747d8b5ec8cbd3b55beca67f0"}
