; ModuleID = 'obj\Release\130\android\environment.armeabi-v7a.ll'
source_filename = "obj\Release\130\android\environment.armeabi-v7a.ll"
target datalayout = "e-m:e-p:32:32-Fi8-i64:64-v128:64:128-a:0:32-n32-S64"
target triple = "armv7-unknown-linux-android"


%struct.ApplicationConfig = type {
	i8,; bool uses_mono_llvm
	i8,; bool uses_mono_aot
	i8,; bool aot_lazy_load
	i8,; bool uses_assembly_preload
	i8,; bool is_a_bundled_app
	i8,; bool broken_exception_transitions
	i8,; bool instant_run_enabled
	i8,; bool jni_add_native_method_registration_attribute_present
	i8,; bool have_runtime_config_blob
	i8,; bool have_assemblies_blob
	i8,; bool marshal_methods_enabled
	i8,; uint8_t bound_stream_io_exception_type
	i32,; uint32_t package_naming_policy
	i32,; uint32_t environment_variable_count
	i32,; uint32_t system_property_count
	i32,; uint32_t number_of_assemblies_in_apk
	i32,; uint32_t bundled_assembly_name_width
	i32,; uint32_t number_of_assembly_store_files
	i32,; uint32_t number_of_dso_cache_entries
	i32,; uint32_t android_runtime_jnienv_class_token
	i32,; uint32_t jnienv_initialize_method_token
	i32,; uint32_t jnienv_registerjninatives_method_token
	i32,; uint32_t jni_remapping_replacement_type_count
	i32,; uint32_t jni_remapping_replacement_method_index_entry_count
	i32,; uint32_t mono_components_mask
	i8*; char* android_package_name
}

%struct.AssemblyStoreAssemblyDescriptor = type {
	i32,; uint32_t data_offset
	i32,; uint32_t data_size
	i32,; uint32_t debug_data_offset
	i32,; uint32_t debug_data_size
	i32,; uint32_t config_data_offset
	i32; uint32_t config_data_size
}

%struct.AssemblyStoreSingleAssemblyRuntimeData = type {
	i8*,; uint8_t* image_data
	i8*,; uint8_t* debug_info_data
	i8*,; uint8_t* config_data
	%struct.AssemblyStoreAssemblyDescriptor*; AssemblyStoreAssemblyDescriptor* descriptor
}

%struct.AssemblyStoreRuntimeData = type {
	i8*,; uint8_t* data_start
	i32,; uint32_t assembly_count
	%struct.AssemblyStoreAssemblyDescriptor*; AssemblyStoreAssemblyDescriptor* assemblies
}

%struct.XamarinAndroidBundledAssembly = type {
	i32,; int32_t apk_fd
	i32,; uint32_t data_offset
	i32,; uint32_t data_size
	i8*,; uint8_t* data
	i32,; uint32_t name_length
	i8*; char* name
}

%struct.DSOCacheEntry = type {
	i64,; uint64_t hash
	i8,; bool ignore
	i8*,; char* name
	i8*; void* handle
}

@format_tag = local_unnamed_addr constant i64 385281960275288, align 8
@__mono_aot_mode_name = internal constant [5 x i8] c"none\00", align 1
@mono_aot_mode_name = local_unnamed_addr constant i8* getelementptr inbounds ([5 x i8], [5 x i8]* @__mono_aot_mode_name, i32 0, i32 0), align 4

; app_environment_variables
@__app_environment_variables_n_0.0 = internal constant [11 x i8] c"MONO_DEBUG\00", align 1
@__app_environment_variables_v_0.1 = internal constant [23 x i8] c"gen-compact-seq-points\00", align 1
@__app_environment_variables_n_1.2 = internal constant [15 x i8] c"MONO_GC_PARAMS\00", align 1
@__app_environment_variables_v_1.3 = internal constant [21 x i8] c"major=marksweep-conc\00", align 1
@__app_environment_variables_n_2.4 = internal constant [17 x i8] c"XAMARIN_BUILD_ID\00", align 1
@__app_environment_variables_v_2.5 = internal constant [37 x i8] c"414178d0-b310-4b89-8118-fcc7231f12b8\00", align 1
@__app_environment_variables_n_3.6 = internal constant [28 x i8] c"XA_HTTP_CLIENT_HANDLER_TYPE\00", align 1
@__app_environment_variables_v_3.7 = internal constant [41 x i8] c"Xamarin.Android.Net.AndroidClientHandler\00", align 1
@__app_environment_variables_n_4.8 = internal constant [16 x i8] c"XA_TLS_PROVIDER\00", align 1
@__app_environment_variables_v_4.9 = internal constant [5 x i8] c"btls\00", align 1
@__app_environment_variables_n_5.10 = internal constant [29 x i8] c"__XA_PACKAGE_NAMING_POLICY__\00", align 1
@__app_environment_variables_v_5.11 = internal constant [15 x i8] c"LowercaseCrc64\00", align 1

@app_environment_variables = local_unnamed_addr constant [12 x i8*] [
	i8* getelementptr inbounds ([11 x i8], [11 x i8]* @__app_environment_variables_n_0.0, i32 0, i32 0),
	i8* getelementptr inbounds ([23 x i8], [23 x i8]* @__app_environment_variables_v_0.1, i32 0, i32 0),
	i8* getelementptr inbounds ([15 x i8], [15 x i8]* @__app_environment_variables_n_1.2, i32 0, i32 0),
	i8* getelementptr inbounds ([21 x i8], [21 x i8]* @__app_environment_variables_v_1.3, i32 0, i32 0),
	i8* getelementptr inbounds ([17 x i8], [17 x i8]* @__app_environment_variables_n_2.4, i32 0, i32 0),
	i8* getelementptr inbounds ([37 x i8], [37 x i8]* @__app_environment_variables_v_2.5, i32 0, i32 0),
	i8* getelementptr inbounds ([28 x i8], [28 x i8]* @__app_environment_variables_n_3.6, i32 0, i32 0),
	i8* getelementptr inbounds ([41 x i8], [41 x i8]* @__app_environment_variables_v_3.7, i32 0, i32 0),
	i8* getelementptr inbounds ([16 x i8], [16 x i8]* @__app_environment_variables_n_4.8, i32 0, i32 0),
	i8* getelementptr inbounds ([5 x i8], [5 x i8]* @__app_environment_variables_v_4.9, i32 0, i32 0),
	i8* getelementptr inbounds ([29 x i8], [29 x i8]* @__app_environment_variables_n_5.10, i32 0, i32 0),
	i8* getelementptr inbounds ([15 x i8], [15 x i8]* @__app_environment_variables_v_5.11, i32 0, i32 0)
], align 4

; app_system_properties
@app_system_properties = local_unnamed_addr constant [0 x i8*] zeroinitializer, align 4
@__ApplicationConfig_android_package_name.0 = internal constant [28 x i8] c"com.companyname.crearateapp\00", align 1

; application_config
@application_config = local_unnamed_addr constant %struct.ApplicationConfig {
	i8 0, ; uses_mono_llvm
	i8 0, ; uses_mono_aot
	i8 0, ; aot_lazy_load
	i8 1, ; uses_assembly_preload
	i8 0, ; is_a_bundled_app
	i8 0, ; broken_exception_transitions
	i8 0, ; instant_run_enabled
	i8 0, ; jni_add_native_method_registration_attribute_present
	i8 0, ; have_runtime_config_blob
	i8 1, ; have_assemblies_blob
	i8 0, ; marshal_methods_enabled
	i8 1, ; bound_stream_io_exception_type
	i32 3, ; package_naming_policy
	i32 12, ; environment_variable_count
	i32 0, ; system_property_count
	i32 49, ; number_of_assemblies_in_apk
	i32 0, ; bundled_assembly_name_width
	i32 2, ; number_of_assembly_store_files
	i32 20, ; number_of_dso_cache_entries
	i32 33555393, ; android_runtime_jnienv_class_token
	i32 100674530, ; jnienv_initialize_method_token
	i32 100674529, ; jnienv_registerjninatives_method_token
	i32 0, ; jni_remapping_replacement_type_count
	i32 0, ; jni_remapping_replacement_method_index_entry_count
	i32 0, ; mono_components_mask
	i8* getelementptr inbounds ([28 x i8], [28 x i8]* @__ApplicationConfig_android_package_name.0, i32 0, i32 0); android_package_name
}, align 4

@__DSOCacheEntry_name.1 = internal constant [16 x i8] c"libmonodroid.so\00", align 1
@__DSOCacheEntry_name.2 = internal constant [22 x i8] c"libxa-internal-api.so\00", align 1
@__DSOCacheEntry_name.3 = internal constant [23 x i8] c"libmono-btls-shared.so\00", align 1
@__DSOCacheEntry_name.4 = internal constant [18 x i8] c"libmono-native.so\00", align 1
@__DSOCacheEntry_name.5 = internal constant [19 x i8] c"libmonosgen-2.0.so\00", align 1

; dso_cache
@dso_cache = local_unnamed_addr global [20 x %struct.DSOCacheEntry] [
	; 0
	%struct.DSOCacheEntry {
		i64 229294244, ; hash 0xdaac0a4, from name: monodroid.so
		i8 0, ; ignore
		i8* getelementptr inbounds ([16 x i8], [16 x i8]* @__DSOCacheEntry_name.1, i32 0, i32 0), ; name
		i8* null; handle
	}, 
	; 1
	%struct.DSOCacheEntry {
		i64 331988322, ; hash 0x13c9bd62, from name: xa-internal-api
		i8 0, ; ignore
		i8* getelementptr inbounds ([22 x i8], [22 x i8]* @__DSOCacheEntry_name.2, i32 0, i32 0), ; name
		i8* null; handle
	}, 
	; 2
	%struct.DSOCacheEntry {
		i64 748366034, ; hash 0x2c9b28d2, from name: monodroid
		i8 0, ; ignore
		i8* getelementptr inbounds ([16 x i8], [16 x i8]* @__DSOCacheEntry_name.1, i32 0, i32 0), ; name
		i8* null; handle
	}, 
	; 3
	%struct.DSOCacheEntry {
		i64 862752302, ; hash 0x336c8e2e, from name: xa-internal-api.so
		i8 0, ; ignore
		i8* getelementptr inbounds ([22 x i8], [22 x i8]* @__DSOCacheEntry_name.2, i32 0, i32 0), ; name
		i8* null; handle
	}, 
	; 4
	%struct.DSOCacheEntry {
		i64 1295752231, ; hash 0x4d3b9c27, from name: mono-btls-shared
		i8 0, ; ignore
		i8* getelementptr inbounds ([23 x i8], [23 x i8]* @__DSOCacheEntry_name.3, i32 0, i32 0), ; name
		i8* null; handle
	}, 
	; 5
	%struct.DSOCacheEntry {
		i64 1342113219, ; hash 0x4fff05c3, from name: mono-native
		i8 0, ; ignore
		i8* getelementptr inbounds ([18 x i8], [18 x i8]* @__DSOCacheEntry_name.4, i32 0, i32 0), ; name
		i8* null; handle
	}, 
	; 6
	%struct.DSOCacheEntry {
		i64 2072997827, ; hash 0x7b8f6fc3, from name: mono-native.so
		i8 0, ; ignore
		i8* getelementptr inbounds ([18 x i8], [18 x i8]* @__DSOCacheEntry_name.4, i32 0, i32 0), ; name
		i8* null; handle
	}, 
	; 7
	%struct.DSOCacheEntry {
		i64 2496112763, ; hash 0x94c7a87b, from name: libmonosgen-2.0
		i8 0, ; ignore
		i8* getelementptr inbounds ([19 x i8], [19 x i8]* @__DSOCacheEntry_name.5, i32 0, i32 0), ; name
		i8* null; handle
	}, 
	; 8
	%struct.DSOCacheEntry {
		i64 2531241668, ; hash 0x96dfaec4, from name: libmono-native
		i8 0, ; ignore
		i8* getelementptr inbounds ([18 x i8], [18 x i8]* @__DSOCacheEntry_name.4, i32 0, i32 0), ; name
		i8* null; handle
	}, 
	; 9
	%struct.DSOCacheEntry {
		i64 2658598962, ; hash 0x9e770032, from name: monosgen-2.0.so
		i8 0, ; ignore
		i8* getelementptr inbounds ([19 x i8], [19 x i8]* @__DSOCacheEntry_name.5, i32 0, i32 0), ; name
		i8* null; handle
	}, 
	; 10
	%struct.DSOCacheEntry {
		i64 2843644522, ; hash 0xa97e926a, from name: libxa-internal-api.so
		i8 0, ; ignore
		i8* getelementptr inbounds ([22 x i8], [22 x i8]* @__DSOCacheEntry_name.2, i32 0, i32 0), ; name
		i8* null; handle
	}, 
	; 11
	%struct.DSOCacheEntry {
		i64 3056707377, ; hash 0xb631a731, from name: libmono-native.so
		i8 0, ; ignore
		i8* getelementptr inbounds ([18 x i8], [18 x i8]* @__DSOCacheEntry_name.4, i32 0, i32 0), ; name
		i8* null; handle
	}, 
	; 12
	%struct.DSOCacheEntry {
		i64 3322182132, ; hash 0xc60479f4, from name: libmono-btls-shared
		i8 0, ; ignore
		i8* getelementptr inbounds ([23 x i8], [23 x i8]* @__DSOCacheEntry_name.3, i32 0, i32 0), ; name
		i8* null; handle
	}, 
	; 13
	%struct.DSOCacheEntry {
		i64 3422266863, ; hash 0xcbfba5ef, from name: libmonodroid.so
		i8 0, ; ignore
		i8* getelementptr inbounds ([16 x i8], [16 x i8]* @__DSOCacheEntry_name.1, i32 0, i32 0), ; name
		i8* null; handle
	}, 
	; 14
	%struct.DSOCacheEntry {
		i64 3572049353, ; hash 0xd4e925c9, from name: libxa-internal-api
		i8 0, ; ignore
		i8* getelementptr inbounds ([22 x i8], [22 x i8]* @__DSOCacheEntry_name.2, i32 0, i32 0), ; name
		i8* null; handle
	}, 
	; 15
	%struct.DSOCacheEntry {
		i64 3636393175, ; hash 0xd8bef4d7, from name: libmonodroid
		i8 0, ; ignore
		i8* getelementptr inbounds ([16 x i8], [16 x i8]* @__DSOCacheEntry_name.1, i32 0, i32 0), ; name
		i8* null; handle
	}, 
	; 16
	%struct.DSOCacheEntry {
		i64 3709087552, ; hash 0xdd142f40, from name: libmono-btls-shared.so
		i8 0, ; ignore
		i8* getelementptr inbounds ([23 x i8], [23 x i8]* @__DSOCacheEntry_name.3, i32 0, i32 0), ; name
		i8* null; handle
	}, 
	; 17
	%struct.DSOCacheEntry {
		i64 3790421216, ; hash 0xe1ed3ce0, from name: monosgen-2.0
		i8 0, ; ignore
		i8* getelementptr inbounds ([19 x i8], [19 x i8]* @__DSOCacheEntry_name.5, i32 0, i32 0), ; name
		i8* null; handle
	}, 
	; 18
	%struct.DSOCacheEntry {
		i64 3797100270, ; hash 0xe25326ee, from name: mono-btls-shared.so
		i8 0, ; ignore
		i8* getelementptr inbounds ([23 x i8], [23 x i8]* @__DSOCacheEntry_name.3, i32 0, i32 0), ; name
		i8* null; handle
	}, 
	; 19
	%struct.DSOCacheEntry {
		i64 3817984437, ; hash 0xe391d1b5, from name: libmonosgen-2.0.so
		i8 0, ; ignore
		i8* getelementptr inbounds ([19 x i8], [19 x i8]* @__DSOCacheEntry_name.5, i32 0, i32 0), ; name
		i8* null; handle
	}
], align 8; end of 'dso_cache' array


; Bundled assembly name buffers, all 0 bytes long
@bundled_assemblies = local_unnamed_addr global [0 x %struct.XamarinAndroidBundledAssembly] zeroinitializer, align 4


; Assembly store individual assembly data
@assembly_store_bundled_assemblies = local_unnamed_addr global [49 x %struct.AssemblyStoreSingleAssemblyRuntimeData] zeroinitializer, align 4

; Assembly store data
@assembly_stores = local_unnamed_addr global [2 x %struct.AssemblyStoreRuntimeData] zeroinitializer, align 4

!llvm.module.flags = !{!0, !1, !2}
!llvm.ident = !{!3}
!0 = !{i32 1, !"wchar_size", i32 4}
!1 = !{i32 7, !"PIC Level", i32 2}
!2 = !{i32 1, !"min_enum_size", i32 4}
!3 = !{!"Xamarin.Android remotes/origin/d17-5 @ 45b0e144f73b2c8747d8b5ec8cbd3b55beca67f0"}
