; ModuleID = 'obj\Debug\130\android\marshal_methods.x86_64.ll'
source_filename = "obj\Debug\130\android\marshal_methods.x86_64.ll"
target datalayout = "e-m:e-p270:32:32-p271:32:32-p272:64:64-i64:64-f80:128-n8:16:32:64-S128"
target triple = "x86_64-unknown-linux-android"


%struct.MonoImage = type opaque

%struct.MonoClass = type opaque

%struct.MarshalMethodsManagedClass = type {
	i32,; uint32_t token
	%struct.MonoClass*; MonoClass* klass
}

%struct.MarshalMethodName = type {
	i64,; uint64_t id
	i8*; char* name
}

%class._JNIEnv = type opaque

%class._jobject = type {
	i8; uint8_t b
}

%class._jclass = type {
	i8; uint8_t b
}

%class._jstring = type {
	i8; uint8_t b
}

%class._jthrowable = type {
	i8; uint8_t b
}

%class._jarray = type {
	i8; uint8_t b
}

%class._jobjectArray = type {
	i8; uint8_t b
}

%class._jbooleanArray = type {
	i8; uint8_t b
}

%class._jbyteArray = type {
	i8; uint8_t b
}

%class._jcharArray = type {
	i8; uint8_t b
}

%class._jshortArray = type {
	i8; uint8_t b
}

%class._jintArray = type {
	i8; uint8_t b
}

%class._jlongArray = type {
	i8; uint8_t b
}

%class._jfloatArray = type {
	i8; uint8_t b
}

%class._jdoubleArray = type {
	i8; uint8_t b
}

; assembly_image_cache
@assembly_image_cache = local_unnamed_addr global [0 x %struct.MonoImage*] zeroinitializer, align 8
; Each entry maps hash of an assembly name to an index into the `assembly_image_cache` array
@assembly_image_cache_hashes = local_unnamed_addr constant [200 x i64] [
	i64 24362543149721218, ; 0: Xamarin.AndroidX.DynamicAnimation => 0x568d9a9a43a682 => 37
	i64 120698629574877762, ; 1: Mono.Android => 0x1accec39cafe242 => 6
	i64 210515253464952879, ; 2: Xamarin.AndroidX.Collection.dll => 0x2ebe681f694702f => 26
	i64 232391251801502327, ; 3: Xamarin.AndroidX.SavedState.dll => 0x3399e9cbc897277 => 64
	i64 295915112840604065, ; 4: Xamarin.AndroidX.SlidingPaneLayout => 0x41b4d3a3088a9a1 => 65
	i64 316157742385208084, ; 5: Xamarin.AndroidX.Core.Core.Ktx.dll => 0x46337caa7dc1b14 => 31
	i64 634308326490598313, ; 6: Xamarin.AndroidX.Lifecycle.Runtime.dll => 0x8cd840fee8b6ba9 => 49
	i64 702024105029695270, ; 7: System.Drawing.Common => 0x9be17343c0e7726 => 94
	i64 720058930071658100, ; 8: Xamarin.AndroidX.Legacy.Support.Core.UI => 0x9fe29c82844de74 => 42
	i64 872800313462103108, ; 9: Xamarin.AndroidX.DrawerLayout => 0xc1ccf42c3c21c44 => 36
	i64 940822596282819491, ; 10: System.Transactions => 0xd0e792aa81923a3 => 92
	i64 996343623809489702, ; 11: Xamarin.Forms.Platform => 0xdd3b93f3b63db26 => 78
	i64 1000557547492888992, ; 12: Mono.Security.dll => 0xde2b1c9cba651a0 => 99
	i64 1120440138749646132, ; 13: Xamarin.Google.Android.Material.dll => 0xf8c9a5eae431534 => 80
	i64 1315114680217950157, ; 14: Xamarin.AndroidX.Arch.Core.Common.dll => 0x124039d5794ad7cd => 21
	i64 1425944114962822056, ; 15: System.Runtime.Serialization.dll => 0x13c9f89e19eaf3a8 => 2
	i64 1624659445732251991, ; 16: Xamarin.AndroidX.AppCompat.AppCompatResources.dll => 0x168bf32877da9957 => 19
	i64 1628611045998245443, ; 17: Xamarin.AndroidX.Lifecycle.ViewModelSavedState.dll => 0x1699fd1e1a00b643 => 51
	i64 1636321030536304333, ; 18: Xamarin.AndroidX.Legacy.Support.Core.Utils.dll => 0x16b5614ec39e16cd => 43
	i64 1795316252682057001, ; 19: Xamarin.AndroidX.AppCompat.dll => 0x18ea3e9eac997529 => 20
	i64 1836611346387731153, ; 20: Xamarin.AndroidX.SavedState => 0x197cf449ebe482d1 => 64
	i64 1875917498431009007, ; 21: Xamarin.AndroidX.Annotation.dll => 0x1a08990699eb70ef => 17
	i64 1981742497975770890, ; 22: Xamarin.AndroidX.Lifecycle.ViewModel.dll => 0x1b80904d5c241f0a => 50
	i64 2064708342624596306, ; 23: Xamarin.Kotlin.StdLib.Jdk7.dll => 0x1ca7514c5eecb152 => 85
	i64 2136356949452311481, ; 24: Xamarin.AndroidX.MultiDex.dll => 0x1da5dd539d8acbb9 => 55
	i64 2165725771938924357, ; 25: Xamarin.AndroidX.Browser => 0x1e0e341d75540745 => 24
	i64 2262844636196693701, ; 26: Xamarin.AndroidX.DrawerLayout.dll => 0x1f673d352266e6c5 => 36
	i64 2284400282711631002, ; 27: System.Web.Services => 0x1fb3d1f42fd4249a => 98
	i64 2304837677853103545, ; 28: Xamarin.AndroidX.ResourceInspection.Annotation.dll => 0x1ffc6da80d5ed5b9 => 63
	i64 2329709569556905518, ; 29: Xamarin.AndroidX.Lifecycle.LiveData.Core.dll => 0x2054ca829b447e2e => 46
	i64 2470498323731680442, ; 30: Xamarin.AndroidX.CoordinatorLayout => 0x2248f922dc398cba => 30
	i64 2479423007379663237, ; 31: Xamarin.AndroidX.VectorDrawable.Animated.dll => 0x2268ae16b2cba985 => 70
	i64 2497223385847772520, ; 32: System.Runtime => 0x22a7eb7046413568 => 13
	i64 2547086958574651984, ; 33: Xamarin.AndroidX.Activity.dll => 0x2359121801df4a50 => 16
	i64 2592350477072141967, ; 34: System.Xml.dll => 0x23f9e10627330e8f => 14
	i64 2624866290265602282, ; 35: mscorlib.dll => 0x246d65fbde2db8ea => 7
	i64 2694427813909235223, ; 36: Xamarin.AndroidX.Preference.dll => 0x256487d230fe0617 => 59
	i64 2787234703088983483, ; 37: Xamarin.AndroidX.Startup.StartupRuntime => 0x26ae3f31ef429dbb => 66
	i64 2960931600190307745, ; 38: Xamarin.Forms.Core => 0x2917579a49927da1 => 76
	i64 3017704767998173186, ; 39: Xamarin.Google.Android.Material => 0x29e10a7f7d88a002 => 80
	i64 3077297026808578792, ; 40: CreaRateApp.dll => 0x2ab4c157774a82e8 => 3
	i64 3289520064315143713, ; 41: Xamarin.AndroidX.Lifecycle.Common => 0x2da6b911e3063621 => 45
	i64 3303437397778967116, ; 42: Xamarin.AndroidX.Annotation.Experimental => 0x2dd82acf985b2a4c => 18
	i64 3311221304742556517, ; 43: System.Numerics.Vectors.dll => 0x2df3d23ba9e2b365 => 12
	i64 3344514922410554693, ; 44: Xamarin.KotlinX.Coroutines.Core.Jvm => 0x2e6a1a9a18463545 => 88
	i64 3493805808809882663, ; 45: Xamarin.AndroidX.Tracing.Tracing.dll => 0x307c7ddf444f3427 => 68
	i64 3522470458906976663, ; 46: Xamarin.AndroidX.SwipeRefreshLayout => 0x30e2543832f52197 => 67
	i64 3531994851595924923, ; 47: System.Numerics => 0x31042a9aade235bb => 11
	i64 3558799159623095293, ; 48: CreaRate.Android => 0x316364faf84b13fd => 0
	i64 3571415421602489686, ; 49: System.Runtime.dll => 0x319037675df7e556 => 13
	i64 3716579019761409177, ; 50: netstandard.dll => 0x3393f0ed5c8c5c99 => 90
	i64 3727469159507183293, ; 51: Xamarin.AndroidX.RecyclerView => 0x33baa1739ba646bd => 62
	i64 3772598417116884899, ; 52: Xamarin.AndroidX.DynamicAnimation.dll => 0x345af645b473efa3 => 37
	i64 4201423742386704971, ; 53: Xamarin.AndroidX.Core.Core.Ktx => 0x3a4e74a233da124b => 31
	i64 4525561845656915374, ; 54: System.ServiceModel.Internals => 0x3ece06856b710dae => 89
	i64 4636684751163556186, ; 55: Xamarin.AndroidX.VersionedParcelable.dll => 0x4058d0370893015a => 72
	i64 4759461199762736555, ; 56: Xamarin.AndroidX.Lifecycle.Process.dll => 0x420d00be961cc5ab => 48
	i64 4782108999019072045, ; 57: Xamarin.AndroidX.AsyncLayoutInflater.dll => 0x425d76cc43bb0a2d => 23
	i64 4794310189461587505, ; 58: Xamarin.AndroidX.Activity => 0x4288cfb749e4c631 => 16
	i64 4795410492532947900, ; 59: Xamarin.AndroidX.SwipeRefreshLayout.dll => 0x428cb86f8f9b7bbc => 67
	i64 5142919913060024034, ; 60: Xamarin.Forms.Platform.Android.dll => 0x475f52699e39bee2 => 77
	i64 5203618020066742981, ; 61: Xamarin.Essentials => 0x4836f704f0e652c5 => 75
	i64 5205316157927637098, ; 62: Xamarin.AndroidX.LocalBroadcastManager => 0x483cff7778e0c06a => 53
	i64 5348796042099802469, ; 63: Xamarin.AndroidX.Media => 0x4a3abda9415fc165 => 54
	i64 5376510917114486089, ; 64: Xamarin.AndroidX.VectorDrawable.Animated => 0x4a9d3431719e5d49 => 70
	i64 5408338804355907810, ; 65: Xamarin.AndroidX.Transition => 0x4b0e477cea9840e2 => 69
	i64 5451019430259338467, ; 66: Xamarin.AndroidX.ConstraintLayout.dll => 0x4ba5e94a845c2ce3 => 29
	i64 5507995362134886206, ; 67: System.Core.dll => 0x4c705499688c873e => 9
	i64 5692067934154308417, ; 68: Xamarin.AndroidX.ViewPager2.dll => 0x4efe49a0d4a8bb41 => 74
	i64 5757522595884336624, ; 69: Xamarin.AndroidX.Concurrent.Futures.dll => 0x4fe6d44bd9f885f0 => 27
	i64 5814345312393086621, ; 70: Xamarin.AndroidX.Preference => 0x50b0b44182a5c69d => 59
	i64 5896680224035167651, ; 71: Xamarin.AndroidX.Lifecycle.LiveData.dll => 0x51d5376bfbafdda3 => 47
	i64 5988776286804139237, ; 72: CreaRateApp => 0x531c684d8e3e5ce5 => 3
	i64 6085203216496545422, ; 73: Xamarin.Forms.Platform.dll => 0x5472fc15a9574e8e => 78
	i64 6086316965293125504, ; 74: FormsViewGroup.dll => 0x5476f10882baef80 => 4
	i64 6319713645133255417, ; 75: Xamarin.AndroidX.Lifecycle.Runtime => 0x57b42213b45b52f9 => 49
	i64 6401687960814735282, ; 76: Xamarin.AndroidX.Lifecycle.LiveData.Core => 0x58d75d486341cfb2 => 46
	i64 6504860066809920875, ; 77: Xamarin.AndroidX.Browser.dll => 0x5a45e7c43bd43d6b => 24
	i64 6548213210057960872, ; 78: Xamarin.AndroidX.CustomView.dll => 0x5adfed387b066da8 => 34
	i64 6591024623626361694, ; 79: System.Web.Services.dll => 0x5b7805f9751a1b5e => 98
	i64 6659513131007730089, ; 80: Xamarin.AndroidX.Legacy.Support.Core.UI.dll => 0x5c6b57e8b6c3e1a9 => 42
	i64 6876862101832370452, ; 81: System.Xml.Linq => 0x5f6f85a57d108914 => 15
	i64 6894844156784520562, ; 82: System.Numerics.Vectors => 0x5faf683aead1ad72 => 12
	i64 7036436454368433159, ; 83: Xamarin.AndroidX.Legacy.Support.V4.dll => 0x61a671acb33d5407 => 44
	i64 7103753931438454322, ; 84: Xamarin.AndroidX.Interpolator.dll => 0x62959a90372c7632 => 41
	i64 7488575175965059935, ; 85: System.Xml.Linq.dll => 0x67ecc3724534ab5f => 15
	i64 7635363394907363464, ; 86: Xamarin.Forms.Core.dll => 0x69f6428dc4795888 => 76
	i64 7637365915383206639, ; 87: Xamarin.Essentials.dll => 0x69fd5fd5e61792ef => 75
	i64 7654504624184590948, ; 88: System.Net.Http => 0x6a3a4366801b8264 => 1
	i64 7735352534559001595, ; 89: Xamarin.Kotlin.StdLib.dll => 0x6b597e2582ce8bfb => 84
	i64 7820441508502274321, ; 90: System.Data => 0x6c87ca1e14ff8111 => 91
	i64 7836164640616011524, ; 91: Xamarin.AndroidX.AppCompat.AppCompatResources => 0x6cbfa6390d64d704 => 19
	i64 8044118961405839122, ; 92: System.ComponentModel.Composition => 0x6fa2739369944712 => 97
	i64 8083354569033831015, ; 93: Xamarin.AndroidX.Lifecycle.Common.dll => 0x702dd82730cad267 => 45
	i64 8103644804370223335, ; 94: System.Data.DataSetExtensions.dll => 0x7075ee03be6d50e7 => 93
	i64 8167236081217502503, ; 95: Java.Interop.dll => 0x7157d9f1a9b8fd27 => 5
	i64 8187640529827139739, ; 96: Xamarin.KotlinX.Coroutines.Android => 0x71a057ae90f0109b => 87
	i64 8398329775253868912, ; 97: Xamarin.AndroidX.ConstraintLayout.Core.dll => 0x748cdc6f3097d170 => 28
	i64 8400357532724379117, ; 98: Xamarin.AndroidX.Navigation.UI.dll => 0x749410ab44503ded => 58
	i64 8426919725312979251, ; 99: Xamarin.AndroidX.Lifecycle.Process => 0x74f26ed7aa033133 => 48
	i64 8598790081731763592, ; 100: Xamarin.AndroidX.Emoji2.ViewsHelper.dll => 0x77550a055fc61d88 => 39
	i64 8601935802264776013, ; 101: Xamarin.AndroidX.Transition.dll => 0x7760370982b4ed4d => 69
	i64 8626175481042262068, ; 102: Java.Interop => 0x77b654e585b55834 => 5
	i64 8639588376636138208, ; 103: Xamarin.AndroidX.Navigation.Runtime => 0x77e5fbdaa2fda2e0 => 57
	i64 8684531736582871431, ; 104: System.IO.Compression.FileSystem => 0x7885a79a0fa0d987 => 96
	i64 8853378295825400934, ; 105: Xamarin.Kotlin.StdLib.Common.dll => 0x7add84a720d38466 => 83
	i64 8951477988056063522, ; 106: Xamarin.AndroidX.ProfileInstaller.ProfileInstaller => 0x7c3a09cd9ccf5e22 => 61
	i64 9312692141327339315, ; 107: Xamarin.AndroidX.ViewPager2 => 0x813d54296a634f33 => 74
	i64 9324707631942237306, ; 108: Xamarin.AndroidX.AppCompat => 0x8168042fd44a7c7a => 20
	i64 9662334977499516867, ; 109: System.Numerics.dll => 0x8617827802b0cfc3 => 11
	i64 9678050649315576968, ; 110: Xamarin.AndroidX.CoordinatorLayout.dll => 0x864f57c9feb18c88 => 30
	i64 9711637524876806384, ; 111: Xamarin.AndroidX.Media.dll => 0x86c6aadfd9a2c8f0 => 54
	i64 9808709177481450983, ; 112: Mono.Android.dll => 0x881f890734e555e7 => 6
	i64 9825649861376906464, ; 113: Xamarin.AndroidX.Concurrent.Futures => 0x885bb87d8abc94e0 => 27
	i64 9834056768316610435, ; 114: System.Transactions.dll => 0x8879968718899783 => 92
	i64 9907349773706910547, ; 115: Xamarin.AndroidX.Emoji2.ViewsHelper => 0x897dfa20b758db53 => 39
	i64 9998632235833408227, ; 116: Mono.Security => 0x8ac2470b209ebae3 => 99
	i64 10038780035334861115, ; 117: System.Net.Http.dll => 0x8b50e941206af13b => 1
	i64 10226222362177979215, ; 118: Xamarin.Kotlin.StdLib.Jdk7 => 0x8dead70ebbc6434f => 85
	i64 10229024438826829339, ; 119: Xamarin.AndroidX.CustomView => 0x8df4cb880b10061b => 34
	i64 10321854143672141184, ; 120: Xamarin.Jetbrains.Annotations.dll => 0x8f3e97a7f8f8c580 => 82
	i64 10376576884623852283, ; 121: Xamarin.AndroidX.Tracing.Tracing => 0x900101b2f888c2fb => 68
	i64 10406448008575299332, ; 122: Xamarin.KotlinX.Coroutines.Core.Jvm.dll => 0x906b2153fcb3af04 => 88
	i64 10430153318873392755, ; 123: Xamarin.AndroidX.Core => 0x90bf592ea44f6673 => 32
	i64 10847732767863316357, ; 124: Xamarin.AndroidX.Arch.Core.Common => 0x968ae37a86db9f85 => 21
	i64 11023048688141570732, ; 125: System.Core => 0x98f9bc61168392ac => 9
	i64 11037814507248023548, ; 126: System.Xml => 0x992e31d0412bf7fc => 14
	i64 11162124722117608902, ; 127: Xamarin.AndroidX.ViewPager => 0x9ae7d54b986d05c6 => 73
	i64 11340910727871153756, ; 128: Xamarin.AndroidX.CursorAdapter => 0x9d630238642d465c => 33
	i64 11392833485892708388, ; 129: Xamarin.AndroidX.Print.dll => 0x9e1b79b18fcf6824 => 60
	i64 11529969570048099689, ; 130: Xamarin.AndroidX.ViewPager.dll => 0xa002ae3c4dc7c569 => 73
	i64 11578238080964724296, ; 131: Xamarin.AndroidX.Legacy.Support.V4 => 0xa0ae2a30c4cd8648 => 44
	i64 11580057168383206117, ; 132: Xamarin.AndroidX.Annotation => 0xa0b4a0a4103262e5 => 17
	i64 11591352189662810718, ; 133: Xamarin.AndroidX.Startup.StartupRuntime.dll => 0xa0dcc167234c525e => 66
	i64 11597940890313164233, ; 134: netstandard => 0xa0f429ca8d1805c9 => 90
	i64 11672361001936329215, ; 135: Xamarin.AndroidX.Interpolator => 0xa1fc8e7d0a8999ff => 41
	i64 11953878187842654044, ; 136: Plugin.BLE => 0xa5e4b4e0a2a6cf5c => 8
	i64 12137774235383566651, ; 137: Xamarin.AndroidX.VectorDrawable => 0xa872095bbfed113b => 71
	i64 12451044538927396471, ; 138: Xamarin.AndroidX.Fragment.dll => 0xaccaff0a2955b677 => 40
	i64 12466513435562512481, ; 139: Xamarin.AndroidX.Loader.dll => 0xad01f3eb52569061 => 52
	i64 12487638416075308985, ; 140: Xamarin.AndroidX.DocumentFile.dll => 0xad4d00fa21b0bfb9 => 35
	i64 12538491095302438457, ; 141: Xamarin.AndroidX.CardView.dll => 0xae01ab382ae67e39 => 25
	i64 12550732019250633519, ; 142: System.IO.Compression => 0xae2d28465e8e1b2f => 95
	i64 12700543734426720211, ; 143: Xamarin.AndroidX.Collection => 0xb041653c70d157d3 => 26
	i64 12828192437253469131, ; 144: Xamarin.Kotlin.StdLib.Jdk8.dll => 0xb206e50e14d873cb => 86
	i64 12963446364377008305, ; 145: System.Drawing.Common.dll => 0xb3e769c8fd8548b1 => 94
	i64 13129914918964716986, ; 146: Xamarin.AndroidX.Emoji2.dll => 0xb636d40db3fe65ba => 38
	i64 13370592475155966277, ; 147: System.Runtime.Serialization => 0xb98de304062ea945 => 2
	i64 13384245460423520048, ; 148: Plugin.BLE.dll => 0xb9be64555f2daf30 => 8
	i64 13401370062847626945, ; 149: Xamarin.AndroidX.VectorDrawable.dll => 0xb9fb3b1193964ec1 => 71
	i64 13404347523447273790, ; 150: Xamarin.AndroidX.ConstraintLayout.Core => 0xba05cf0da4f6393e => 28
	i64 13454009404024712428, ; 151: Xamarin.Google.Guava.ListenableFuture => 0xbab63e4543a86cec => 81
	i64 13465488254036897740, ; 152: Xamarin.Kotlin.StdLib => 0xbadf06394d106fcc => 84
	i64 13491513212026656886, ; 153: Xamarin.AndroidX.Arch.Core.Runtime.dll => 0xbb3b7bc905569876 => 22
	i64 13572454107664307259, ; 154: Xamarin.AndroidX.RecyclerView.dll => 0xbc5b0b19d99f543b => 62
	i64 13647894001087880694, ; 155: System.Data.dll => 0xbd670f48cb071df6 => 91
	i64 13828521679616088467, ; 156: Xamarin.Kotlin.StdLib.Common => 0xbfe8c733724e1993 => 83
	i64 13959074834287824816, ; 157: Xamarin.AndroidX.Fragment => 0xc1b8989a7ad20fb0 => 40
	i64 13967638549803255703, ; 158: Xamarin.Forms.Platform.Android => 0xc1d70541e0134797 => 77
	i64 14124974489674258913, ; 159: Xamarin.AndroidX.CardView => 0xc405fd76067d19e1 => 25
	i64 14172845254133543601, ; 160: Xamarin.AndroidX.MultiDex => 0xc4b00faaed35f2b1 => 55
	i64 14261073672896646636, ; 161: Xamarin.AndroidX.Print => 0xc5e982f274ae0dec => 60
	i64 14486659737292545672, ; 162: Xamarin.AndroidX.Lifecycle.LiveData => 0xc90af44707469e88 => 47
	i64 14495724990987328804, ; 163: Xamarin.AndroidX.ResourceInspection.Annotation => 0xc92b2913e18d5d24 => 63
	i64 14644440854989303794, ; 164: Xamarin.AndroidX.LocalBroadcastManager.dll => 0xcb3b815e37daeff2 => 53
	i64 14792063746108907174, ; 165: Xamarin.Google.Guava.ListenableFuture.dll => 0xcd47f79af9c15ea6 => 81
	i64 14852515768018889994, ; 166: Xamarin.AndroidX.CursorAdapter.dll => 0xce1ebc6625a76d0a => 33
	i64 14987728460634540364, ; 167: System.IO.Compression.dll => 0xcfff1ba06622494c => 95
	i64 14988210264188246988, ; 168: Xamarin.AndroidX.DocumentFile => 0xd000d1d307cddbcc => 35
	i64 15150743910298169673, ; 169: Xamarin.AndroidX.ProfileInstaller.ProfileInstaller.dll => 0xd2424150783c3149 => 61
	i64 15279429628684179188, ; 170: Xamarin.KotlinX.Coroutines.Android.dll => 0xd40b704b1c4c96f4 => 87
	i64 15370334346939861994, ; 171: Xamarin.AndroidX.Core.dll => 0xd54e65a72c560bea => 32
	i64 15582737692548360875, ; 172: Xamarin.AndroidX.Lifecycle.ViewModelSavedState => 0xd841015ed86f6aab => 51
	i64 15609085926864131306, ; 173: System.dll => 0xd89e9cf3334914ea => 10
	i64 15777549416145007739, ; 174: Xamarin.AndroidX.SlidingPaneLayout.dll => 0xdaf51d99d77eb47b => 65
	i64 15810740023422282496, ; 175: Xamarin.Forms.Xaml => 0xdb6b08484c22eb00 => 79
	i64 16154507427712707110, ; 176: System => 0xe03056ea4e39aa26 => 10
	i64 16370165686514879929, ; 177: CreaRate.Android.dll => 0xe32e82f583020db9 => 0
	i64 16423015068819898779, ; 178: Xamarin.Kotlin.StdLib.Jdk8 => 0xe3ea453135e5c19b => 86
	i64 16565028646146589191, ; 179: System.ComponentModel.Composition.dll => 0xe5e2cdc9d3bcc207 => 97
	i64 16621146507174665210, ; 180: Xamarin.AndroidX.ConstraintLayout => 0xe6aa2caf87dedbfa => 29
	i64 16677317093839702854, ; 181: Xamarin.AndroidX.Navigation.UI => 0xe771bb8960dd8b46 => 58
	i64 16822611501064131242, ; 182: System.Data.DataSetExtensions => 0xe975ec07bb5412aa => 93
	i64 16833383113903931215, ; 183: mscorlib => 0xe99c30c1484d7f4f => 7
	i64 17024911836938395553, ; 184: Xamarin.AndroidX.Annotation.Experimental.dll => 0xec44a31d250e5fa1 => 18
	i64 17031351772568316411, ; 185: Xamarin.AndroidX.Navigation.Common.dll => 0xec5b843380a769fb => 56
	i64 17037200463775726619, ; 186: Xamarin.AndroidX.Legacy.Support.Core.Utils => 0xec704b8e0a78fc1b => 43
	i64 17544493274320527064, ; 187: Xamarin.AndroidX.AsyncLayoutInflater => 0xf37a8fada41aded8 => 23
	i64 17704177640604968747, ; 188: Xamarin.AndroidX.Loader => 0xf5b1dfc36cac272b => 52
	i64 17710060891934109755, ; 189: Xamarin.AndroidX.Lifecycle.ViewModel => 0xf5c6c68c9e45303b => 50
	i64 17882897186074144999, ; 190: FormsViewGroup => 0xf82cd03e3ac830e7 => 4
	i64 17891337867145587222, ; 191: Xamarin.Jetbrains.Annotations => 0xf84accff6fb52a16 => 82
	i64 17892495832318972303, ; 192: Xamarin.Forms.Xaml.dll => 0xf84eea293687918f => 79
	i64 17928294245072900555, ; 193: System.IO.Compression.FileSystem.dll => 0xf8ce18a0b24011cb => 96
	i64 18116111925905154859, ; 194: Xamarin.AndroidX.Arch.Core.Runtime => 0xfb695bd036cb632b => 22
	i64 18121036031235206392, ; 195: Xamarin.AndroidX.Navigation.Common => 0xfb7ada42d3d42cf8 => 56
	i64 18129453464017766560, ; 196: System.ServiceModel.Internals.dll => 0xfb98c1df1ec108a0 => 89
	i64 18260797123374478311, ; 197: Xamarin.AndroidX.Emoji2 => 0xfd6b623bde35f3e7 => 38
	i64 18305135509493619199, ; 198: Xamarin.AndroidX.Navigation.Runtime.dll => 0xfe08e7c2d8c199ff => 57
	i64 18380184030268848184 ; 199: Xamarin.AndroidX.VersionedParcelable => 0xff1387fe3e7b7838 => 72
], align 16
@assembly_image_cache_indices = local_unnamed_addr constant [200 x i32] [
	i32 37, i32 6, i32 26, i32 64, i32 65, i32 31, i32 49, i32 94, ; 0..7
	i32 42, i32 36, i32 92, i32 78, i32 99, i32 80, i32 21, i32 2, ; 8..15
	i32 19, i32 51, i32 43, i32 20, i32 64, i32 17, i32 50, i32 85, ; 16..23
	i32 55, i32 24, i32 36, i32 98, i32 63, i32 46, i32 30, i32 70, ; 24..31
	i32 13, i32 16, i32 14, i32 7, i32 59, i32 66, i32 76, i32 80, ; 32..39
	i32 3, i32 45, i32 18, i32 12, i32 88, i32 68, i32 67, i32 11, ; 40..47
	i32 0, i32 13, i32 90, i32 62, i32 37, i32 31, i32 89, i32 72, ; 48..55
	i32 48, i32 23, i32 16, i32 67, i32 77, i32 75, i32 53, i32 54, ; 56..63
	i32 70, i32 69, i32 29, i32 9, i32 74, i32 27, i32 59, i32 47, ; 64..71
	i32 3, i32 78, i32 4, i32 49, i32 46, i32 24, i32 34, i32 98, ; 72..79
	i32 42, i32 15, i32 12, i32 44, i32 41, i32 15, i32 76, i32 75, ; 80..87
	i32 1, i32 84, i32 91, i32 19, i32 97, i32 45, i32 93, i32 5, ; 88..95
	i32 87, i32 28, i32 58, i32 48, i32 39, i32 69, i32 5, i32 57, ; 96..103
	i32 96, i32 83, i32 61, i32 74, i32 20, i32 11, i32 30, i32 54, ; 104..111
	i32 6, i32 27, i32 92, i32 39, i32 99, i32 1, i32 85, i32 34, ; 112..119
	i32 82, i32 68, i32 88, i32 32, i32 21, i32 9, i32 14, i32 73, ; 120..127
	i32 33, i32 60, i32 73, i32 44, i32 17, i32 66, i32 90, i32 41, ; 128..135
	i32 8, i32 71, i32 40, i32 52, i32 35, i32 25, i32 95, i32 26, ; 136..143
	i32 86, i32 94, i32 38, i32 2, i32 8, i32 71, i32 28, i32 81, ; 144..151
	i32 84, i32 22, i32 62, i32 91, i32 83, i32 40, i32 77, i32 25, ; 152..159
	i32 55, i32 60, i32 47, i32 63, i32 53, i32 81, i32 33, i32 95, ; 160..167
	i32 35, i32 61, i32 87, i32 32, i32 51, i32 10, i32 65, i32 79, ; 168..175
	i32 10, i32 0, i32 86, i32 97, i32 29, i32 58, i32 93, i32 7, ; 176..183
	i32 18, i32 56, i32 43, i32 23, i32 52, i32 50, i32 4, i32 82, ; 184..191
	i32 79, i32 96, i32 22, i32 56, i32 89, i32 38, i32 57, i32 72 ; 200..199
], align 16

@marshal_methods_number_of_classes = local_unnamed_addr constant i32 0, align 4

; marshal_methods_class_cache
@marshal_methods_class_cache = global [0 x %struct.MarshalMethodsManagedClass] [
], align 8; end of 'marshal_methods_class_cache' array


@get_function_pointer = internal unnamed_addr global void (i32, i32, i32, i8**)* null, align 8

; Function attributes: "frame-pointer"="none" "min-legal-vector-width"="0" mustprogress nofree norecurse nosync "no-trapping-math"="true" nounwind sspstrong "stack-protector-buffer-size"="8" "target-cpu"="x86-64" "target-features"="+cx16,+cx8,+fxsr,+mmx,+popcnt,+sse,+sse2,+sse3,+sse4.1,+sse4.2,+ssse3,+x87" "tune-cpu"="generic" uwtable willreturn writeonly
define void @xamarin_app_init (void (i32, i32, i32, i8**)* %fn) local_unnamed_addr #0
{
	store void (i32, i32, i32, i8**)* %fn, void (i32, i32, i32, i8**)** @get_function_pointer, align 8
	ret void
}

; Names of classes in which marshal methods reside
@mm_class_names = local_unnamed_addr constant [0 x i8*] zeroinitializer, align 8
@__MarshalMethodName_name.0 = internal constant [1 x i8] c"\00", align 1

; mm_method_names
@mm_method_names = local_unnamed_addr constant [1 x %struct.MarshalMethodName] [
	; 0
	%struct.MarshalMethodName {
		i64 0, ; id 0x0; name: 
		i8* getelementptr inbounds ([1 x i8], [1 x i8]* @__MarshalMethodName_name.0, i32 0, i32 0); name
	}
], align 16; end of 'mm_method_names' array


attributes #0 = { "min-legal-vector-width"="0" mustprogress nofree norecurse nosync "no-trapping-math"="true" nounwind sspstrong "stack-protector-buffer-size"="8" uwtable willreturn writeonly "frame-pointer"="none" "target-cpu"="x86-64" "target-features"="+cx16,+cx8,+fxsr,+mmx,+popcnt,+sse,+sse2,+sse3,+sse4.1,+sse4.2,+ssse3,+x87" "tune-cpu"="generic" }
attributes #1 = { "min-legal-vector-width"="0" mustprogress "no-trapping-math"="true" nounwind sspstrong "stack-protector-buffer-size"="8" uwtable "frame-pointer"="none" "target-cpu"="x86-64" "target-features"="+cx16,+cx8,+fxsr,+mmx,+popcnt,+sse,+sse2,+sse3,+sse4.1,+sse4.2,+ssse3,+x87" "tune-cpu"="generic" }
attributes #2 = { nounwind }

!llvm.module.flags = !{!0, !1}
!llvm.ident = !{!2}
!0 = !{i32 1, !"wchar_size", i32 4}
!1 = !{i32 7, !"PIC Level", i32 2}
!2 = !{!"Xamarin.Android remotes/origin/d17-5 @ 45b0e144f73b2c8747d8b5ec8cbd3b55beca67f0"}
!llvm.linker.options = !{}
