C:/Users/Basile/STM32CubeIDE/workspace_1.14.1/BLE_HeartRate/Drivers/STM32WBxx_HAL_Driver/Src/stm32wbxx_hal_exti.c:141:19:HAL_EXTI_SetConfigLine	40	static
C:/Users/Basile/STM32CubeIDE/workspace_1.14.1/BLE_HeartRate/Drivers/STM32WBxx_HAL_Driver/Src/stm32wbxx_hal_exti.c:266:19:HAL_EXTI_GetConfigLine	40	static
C:/Users/Basile/STM32CubeIDE/workspace_1.14.1/BLE_HeartRate/Drivers/STM32WBxx_HAL_Driver/Src/stm32wbxx_hal_exti.c:360:19:HAL_EXTI_ClearConfigLine	40	static
C:/Users/Basile/STM32CubeIDE/workspace_1.14.1/BLE_HeartRate/Drivers/STM32WBxx_HAL_Driver/Src/stm32wbxx_hal_exti.c:426:19:HAL_EXTI_RegisterCallback	32	static
C:/Users/Basile/STM32CubeIDE/workspace_1.14.1/BLE_HeartRate/Drivers/STM32WBxx_HAL_Driver/Src/stm32wbxx_hal_exti.c:453:19:HAL_EXTI_GetHandle	16	static
C:/Users/Basile/STM32CubeIDE/workspace_1.14.1/BLE_HeartRate/Drivers/STM32WBxx_HAL_Driver/Src/stm32wbxx_hal_exti.c:494:6:HAL_EXTI_IRQHandler	32	static
C:/Users/Basile/STM32CubeIDE/workspace_1.14.1/BLE_HeartRate/Drivers/STM32WBxx_HAL_Driver/Src/stm32wbxx_hal_exti.c:532:10:HAL_EXTI_GetPending	40	static
C:/Users/Basile/STM32CubeIDE/workspace_1.14.1/BLE_HeartRate/Drivers/STM32WBxx_HAL_Driver/Src/stm32wbxx_hal_exti.c:570:6:HAL_EXTI_ClearPending	32	static
C:/Users/Basile/STM32CubeIDE/workspace_1.14.1/BLE_HeartRate/Drivers/STM32WBxx_HAL_Driver/Src/stm32wbxx_hal_exti.c:600:6:HAL_EXTI_GenerateSWI	32	static
