C:/Users/Basile/STM32CubeIDE/workspace_1.14.1/BLE_HeartRate/Drivers/STM32WBxx_HAL_Driver/Src/stm32wbxx_hal_rtc_ex.c:194:19:HAL_RTCEx_SetTimeStamp	32	static
C:/Users/Basile/STM32CubeIDE/workspace_1.14.1/BLE_HeartRate/Drivers/STM32WBxx_HAL_Driver/Src/stm32wbxx_hal_rtc_ex.c:256:19:HAL_RTCEx_SetTimeStamp_IT	32	static
C:/Users/Basile/STM32CubeIDE/workspace_1.14.1/BLE_HeartRate/Drivers/STM32WBxx_HAL_Driver/Src/stm32wbxx_hal_rtc_ex.c:312:19:HAL_RTCEx_DeactivateTimeStamp	24	static
C:/Users/Basile/STM32CubeIDE/workspace_1.14.1/BLE_HeartRate/Drivers/STM32WBxx_HAL_Driver/Src/stm32wbxx_hal_rtc_ex.c:352:19:HAL_RTCEx_SetInternalTimeStamp	16	static
C:/Users/Basile/STM32CubeIDE/workspace_1.14.1/BLE_HeartRate/Drivers/STM32WBxx_HAL_Driver/Src/stm32wbxx_hal_rtc_ex.c:386:19:HAL_RTCEx_DeactivateInternalTimeStamp	16	static
C:/Users/Basile/STM32CubeIDE/workspace_1.14.1/BLE_HeartRate/Drivers/STM32WBxx_HAL_Driver/Src/stm32wbxx_hal_rtc_ex.c:422:19:HAL_RTCEx_GetTimeStamp	32	static
C:/Users/Basile/STM32CubeIDE/workspace_1.14.1/BLE_HeartRate/Drivers/STM32WBxx_HAL_Driver/Src/stm32wbxx_hal_rtc_ex.c:479:19:HAL_RTCEx_SetTamper	24	static
C:/Users/Basile/STM32CubeIDE/workspace_1.14.1/BLE_HeartRate/Drivers/STM32WBxx_HAL_Driver/Src/stm32wbxx_hal_rtc_ex.c:572:19:HAL_RTCEx_SetTamper_IT	24	static
C:/Users/Basile/STM32CubeIDE/workspace_1.14.1/BLE_HeartRate/Drivers/STM32WBxx_HAL_Driver/Src/stm32wbxx_hal_rtc_ex.c:671:19:HAL_RTCEx_DeactivateTamper	16	static
C:/Users/Basile/STM32CubeIDE/workspace_1.14.1/BLE_HeartRate/Drivers/STM32WBxx_HAL_Driver/Src/stm32wbxx_hal_rtc_ex.c:717:6:HAL_RTCEx_TamperTimeStampIRQHandler	16	static
C:/Users/Basile/STM32CubeIDE/workspace_1.14.1/BLE_HeartRate/Drivers/STM32WBxx_HAL_Driver/Src/stm32wbxx_hal_rtc_ex.c:808:13:HAL_RTCEx_TimeStampEventCallback	16	static
C:/Users/Basile/STM32CubeIDE/workspace_1.14.1/BLE_HeartRate/Drivers/STM32WBxx_HAL_Driver/Src/stm32wbxx_hal_rtc_ex.c:824:13:HAL_RTCEx_Tamper1EventCallback	16	static
C:/Users/Basile/STM32CubeIDE/workspace_1.14.1/BLE_HeartRate/Drivers/STM32WBxx_HAL_Driver/Src/stm32wbxx_hal_rtc_ex.c:840:13:HAL_RTCEx_Tamper2EventCallback	16	static
C:/Users/Basile/STM32CubeIDE/workspace_1.14.1/BLE_HeartRate/Drivers/STM32WBxx_HAL_Driver/Src/stm32wbxx_hal_rtc_ex.c:856:13:HAL_RTCEx_Tamper3EventCallback	16	static
C:/Users/Basile/STM32CubeIDE/workspace_1.14.1/BLE_HeartRate/Drivers/STM32WBxx_HAL_Driver/Src/stm32wbxx_hal_rtc_ex.c:873:19:HAL_RTCEx_PollForTimeStampEvent	24	static
C:/Users/Basile/STM32CubeIDE/workspace_1.14.1/BLE_HeartRate/Drivers/STM32WBxx_HAL_Driver/Src/stm32wbxx_hal_rtc_ex.c:913:19:HAL_RTCEx_PollForTamper1Event	24	static
C:/Users/Basile/STM32CubeIDE/workspace_1.14.1/BLE_HeartRate/Drivers/STM32WBxx_HAL_Driver/Src/stm32wbxx_hal_rtc_ex.c:946:19:HAL_RTCEx_PollForTamper2Event	24	static
C:/Users/Basile/STM32CubeIDE/workspace_1.14.1/BLE_HeartRate/Drivers/STM32WBxx_HAL_Driver/Src/stm32wbxx_hal_rtc_ex.c:979:19:HAL_RTCEx_PollForTamper3Event	24	static
C:/Users/Basile/STM32CubeIDE/workspace_1.14.1/BLE_HeartRate/Drivers/STM32WBxx_HAL_Driver/Src/stm32wbxx_hal_rtc_ex.c:1031:19:HAL_RTCEx_SetWakeUpTimer	32	static
C:/Users/Basile/STM32CubeIDE/workspace_1.14.1/BLE_HeartRate/Drivers/STM32WBxx_HAL_Driver/Src/stm32wbxx_hal_rtc_ex.c:1121:19:HAL_RTCEx_SetWakeUpTimer_IT	32	static
C:/Users/Basile/STM32CubeIDE/workspace_1.14.1/BLE_HeartRate/Drivers/STM32WBxx_HAL_Driver/Src/stm32wbxx_hal_rtc_ex.c:1220:19:HAL_RTCEx_DeactivateWakeUpTimer	24	static
C:/Users/Basile/STM32CubeIDE/workspace_1.14.1/BLE_HeartRate/Drivers/STM32WBxx_HAL_Driver/Src/stm32wbxx_hal_rtc_ex.c:1272:10:HAL_RTCEx_GetWakeUpTimer	16	static
C:/Users/Basile/STM32CubeIDE/workspace_1.14.1/BLE_HeartRate/Drivers/STM32WBxx_HAL_Driver/Src/stm32wbxx_hal_rtc_ex.c:1283:6:HAL_RTCEx_WakeUpTimerIRQHandler	16	static
C:/Users/Basile/STM32CubeIDE/workspace_1.14.1/BLE_HeartRate/Drivers/STM32WBxx_HAL_Driver/Src/stm32wbxx_hal_rtc_ex.c:1311:13:HAL_RTCEx_WakeUpTimerEventCallback	16	static
C:/Users/Basile/STM32CubeIDE/workspace_1.14.1/BLE_HeartRate/Drivers/STM32WBxx_HAL_Driver/Src/stm32wbxx_hal_rtc_ex.c:1328:19:HAL_RTCEx_PollForWakeUpTimerEvent	24	static
C:/Users/Basile/STM32CubeIDE/workspace_1.14.1/BLE_HeartRate/Drivers/STM32WBxx_HAL_Driver/Src/stm32wbxx_hal_rtc_ex.c:1394:6:HAL_RTCEx_BKUPWrite	32	static
C:/Users/Basile/STM32CubeIDE/workspace_1.14.1/BLE_HeartRate/Drivers/STM32WBxx_HAL_Driver/Src/stm32wbxx_hal_rtc_ex.c:1416:10:HAL_RTCEx_BKUPRead	24	static
C:/Users/Basile/STM32CubeIDE/workspace_1.14.1/BLE_HeartRate/Drivers/STM32WBxx_HAL_Driver/Src/stm32wbxx_hal_rtc_ex.c:1449:19:HAL_RTCEx_SetSmoothCalib	32	static
C:/Users/Basile/STM32CubeIDE/workspace_1.14.1/BLE_HeartRate/Drivers/STM32WBxx_HAL_Driver/Src/stm32wbxx_hal_rtc_ex.c:1519:19:HAL_RTCEx_SetSynchroShift	32	static
C:/Users/Basile/STM32CubeIDE/workspace_1.14.1/BLE_HeartRate/Drivers/STM32WBxx_HAL_Driver/Src/stm32wbxx_hal_rtc_ex.c:1612:19:HAL_RTCEx_SetCalibrationOutPut	16	static
C:/Users/Basile/STM32CubeIDE/workspace_1.14.1/BLE_HeartRate/Drivers/STM32WBxx_HAL_Driver/Src/stm32wbxx_hal_rtc_ex.c:1650:19:HAL_RTCEx_DeactivateCalibrationOutPut	16	static
C:/Users/Basile/STM32CubeIDE/workspace_1.14.1/BLE_HeartRate/Drivers/STM32WBxx_HAL_Driver/Src/stm32wbxx_hal_rtc_ex.c:1679:19:HAL_RTCEx_SetRefClock	16	static
C:/Users/Basile/STM32CubeIDE/workspace_1.14.1/BLE_HeartRate/Drivers/STM32WBxx_HAL_Driver/Src/stm32wbxx_hal_rtc_ex.c:1728:19:HAL_RTCEx_DeactivateRefClock	16	static
C:/Users/Basile/STM32CubeIDE/workspace_1.14.1/BLE_HeartRate/Drivers/STM32WBxx_HAL_Driver/Src/stm32wbxx_hal_rtc_ex.c:1779:19:HAL_RTCEx_EnableBypassShadow	16	static
C:/Users/Basile/STM32CubeIDE/workspace_1.14.1/BLE_HeartRate/Drivers/STM32WBxx_HAL_Driver/Src/stm32wbxx_hal_rtc_ex.c:1811:19:HAL_RTCEx_DisableBypassShadow	16	static
C:/Users/Basile/STM32CubeIDE/workspace_1.14.1/BLE_HeartRate/Drivers/STM32WBxx_HAL_Driver/Src/stm32wbxx_hal_rtc_ex.c:1860:13:HAL_RTCEx_AlarmBEventCallback	16	static
C:/Users/Basile/STM32CubeIDE/workspace_1.14.1/BLE_HeartRate/Drivers/STM32WBxx_HAL_Driver/Src/stm32wbxx_hal_rtc_ex.c:1876:19:HAL_RTCEx_PollForAlarmBEvent	24	static
