C:/Users/Basile/STM32CubeIDE/workspace_1.14.1/BLE_HeartRate/STM32_WPAN/App/hrs_app.c:81:6:HRS_Notification	16	static
C:/Users/Basile/STM32CubeIDE/workspace_1.14.1/BLE_HeartRate/STM32_WPAN/App/hrs_app.c:137:6:HRSAPP_Init	16	static
C:/Users/Basile/STM32CubeIDE/workspace_1.14.1/BLE_HeartRate/STM32_WPAN/App/hrs_app.c:184:13:HRSAPP_Measurement	16	static
C:/Users/Basile/STM32CubeIDE/workspace_1.14.1/BLE_HeartRate/STM32_WPAN/App/hrs_app.c:208:13:HrMeas	8	static
C:/Users/Basile/STM32CubeIDE/workspace_1.14.1/BLE_HeartRate/STM32_WPAN/App/hrs_app.c:223:17:HRSAPP_Read_RTC_SSR_SS	4	static
